{ 
    "/rpc/*" : { 
        "target": "https://gajsfm786j.execute-api.us-west-2.amazonaws.com",
        "secure": false,
        "logLevel": "debug",
        "pathRewrite": { "^/rpc/": "/Prod/" },
        "changeOrigin": true
    },
    "/api/*" : { 
        "target": "http://localhost:3000",  
        "secure": false,
        "logLevel": "debug",
        "pathRewrite": { "^/api": "" }
    },
    "/login.html" : {     
        "target": "http://localhost:8181/login.html",
        "secure": false,
        "logLevel": "debug"
    }
}

